BCO6007: Week 5 Tutorial
…
# Who consumes beer on premises
state_percents_2019 <- beer_states %>%
  filter(year == max(year), state != "total") %>%
  group_by(state, year) %>%
  mutate(percent = barrels / sum(barrels)) %>%
  ungroup()
state_percents_2019 %>%
  filter(type == "On Premises") %>%
  arrange(desc(percent))

## # A tibble: 51 x 5
##    state  year barrels type        percent
##    <chr> <dbl>   <dbl> <chr>         <dbl>
##  1 ND     2019  10219. On Premises   0.982
##  2 OK     2019  21129. On Premises   0.925
##  3 SD     2019   9386. On Premises   0.722
##  4 WV     2019   8302. On Premises   0.673
##  5 AL     2019  47160. On Premises   0.659
##  6 SC     2019  53161. On Premises   0.625
##  7 IA     2019  61429. On Premises   0.560
##  8 MS     2019  11912. On Premises   0.555
##  9 DC     2019  16348. On Premises   0.547
## 10 AR     2019  16569. On Premises   0.542
## #  with 41 more rows
…
