BCO6007: Lecture 4
…
```r
avocado%>%
  group_by(region)%>%
  slice_tail(n=5)
```

```
## # A tibble: 270 x 14
## # Groups:   region [54]
##       X1 Date       AveragePrice `Total Volume` `4046` `4225` `4770`
##    <dbl> <date>            <dbl>          <dbl>  <dbl>  <dbl>  <dbl>
##  1     7 2018-02-04         1.52          4125.  118.    420.      0
##  2     8 2018-01-28         1.32          6988.  434.    375.      0
##  3     9 2018-01-21         1.54          3347.   14.7   253.      0
##  4    10 2018-01-14         1.47          4141.    7.3   302.      0
##  5    11 2018-01-07         1.54          4817.   43.5   412.      0
##  6     7 2018-02-04         1.62         11900.  384.   4043.      0
##  7     8 2018-01-28         1.67         14446.  390.   5130.      0
##  8     9 2018-01-21         1.64         18555.  349.   3968.      0
##  9    10 2018-01-14         1.56         16152.  292.   3583.      0
## 10    11 2018-01-07         1.53         15714.  405.   4195.      0
## # … with 260 more rows, and 7 more variables: `Total Bags` <dbl>, `Small
## #   Bags` <dbl>, `Large Bags` <dbl>, `XLarge Bags` <dbl>, type <chr>,
## #   year <dbl>, region <chr>
```
…
**HINT** `summarize` is not ALWAYS neccessary, `count()` can be a good alternative:

`df %>% count(a, b)` is roughly equivalent to `df %>% group_by(a, b) %>% summarise(n = n())`
---

- `filter()`
[Doc](https://dplyr.tidyverse.org/reference/filter.html) - select rows 

```r
grad  %>% filter(NumStud>100)
```

```
## # A tibble: 56 x 16
##    subject Inst  AvNumPubs AvNumCits PctFacGrants PctCompletion MedianTimetoDeg…
##    <chr>   <chr>     <dbl>     <dbl>        <dbl>         <dbl>            <dbl>
##  1 econom… BOST…      0.49      2.66         36.9          34.2             5.5 
##  2 econom… COLU…      0.62      1.52         60.2          43.4             6   
##  3 econom… CORN…      0.71      1.61         59.7          67.9             5.4 
##  4 econom… HARV…      1.17      4.26         68.9          79.7             5   
##  5 econom… MASS…      1.23      3.17         55.7          81.8             4.8 
##  6 econom… NEW …      0.76      2.35         71.3          56.4             5.67
##  7 econom… NORT…      0.53      2.43         48.6          54.6             5.1 
##  8 econom… OHIO…      0.51      1.09         42            32.3             5.75
##  9 econom… STAN…      0.52      2.73         45.3          58.7             6   
## 10 econom… TEXA…      0.46      0.73         43.9          44.1             5   
## # … with 46 more rows, and 9 more variables: PctMinorityFac <dbl>,
## #   PctFemaleFac <dbl>, PctFemaleStud <dbl>, PctIntlStud <dbl>,
## #   AvNumPhDs <dbl>, AvGREs <dbl>, TotFac <dbl>, PctAsstProf <dbl>,
## #   NumStud <dbl>
```

```r
grad  %>%
  group_by(Inst)%>% 
  filter(NumStud>mean(NumStud))
```

```
## # A tibble: 170 x 16
## # Groups:   Inst [127]
##    subject Inst  AvNumPubs AvNumCits PctFacGrants PctCompletion MedianTimetoDeg…
##    <chr>   <chr>     <dbl>     <dbl>        <dbl>         <dbl>            <dbl>
##  1 econom… BOST…      0.51      1.03         43.5          46.8             5   
##  2 econom… BOST…      0.49      2.66         36.9          34.2             5.5 
##  3 econom… BRAN…      0.3       3.03         36.8          48.7             5.29
##  4 econom… BROW…      0.84      2.31         27.1          54.6             6   
##  5 econom… CALI…      0.99      2.31         56.4          83.3             4   
##  6 econom… CARN…      0.43      1.67         35.2          45.6             5.05
##  7 econom… CITY…      0.35      1.06         38.1          27.9             5.2 
##  8 econom… COLU…      0.62      1.52         60.2          43.4             6   
##  9 econom… CORN…      0.71      1.61         59.7          67.9             5.4 
## 10 econom… FORD…      0.27      0.23         16.7          30.1             5.5 
## # … with 160 more rows, and 9 more variables: PctMinorityFac <dbl>,
## #   PctFemaleFac <dbl>, PctFemaleStud <dbl>, PctIntlStud <dbl>,
## #   AvNumPhDs <dbl>, AvGREs <dbl>, TotFac <dbl>, PctAsstProf <dbl>,
## #   NumStud <dbl>
```
---

- `select()`
[Doc](https://dplyr.tidyverse.org/reference/select.html) - select columns

```r
grad  %>% select(Inst)
```

```
## # A tibble: 412 x 1
##    Inst                                    
##    <chr>                                   
##  1 ARIZONA STATE UNIVERSITY                
##  2 AUBURN UNIVERSITY                       
##  3 BOSTON COLLEGE                          
##  4 BOSTON UNIVERSITY                       
##  5 BRANDEIS UNIVERSITY                     
##  6 BROWN UNIVERSITY                        
##  7 CALIFORNIA INSTITUTE OF TECHNOLOGY      
##  8 CARNEGIE MELLON UNIVERSITY              
##  9 CITY UNIVERSITY OF NEW YORK GRAD. CENTER
## 10 CLAREMONT GRADUATE UNIVERSITY           
## # … with 402 more rows
```

```r
grad  %>% select(subject, Inst, NumStud)
```

```
## # A tibble: 412 x 3
##    subject   Inst                                     NumStud
##    <chr>     <chr>                                      <dbl>
##  1 economics ARIZONA STATE UNIVERSITY                      33
##  2 economics AUBURN UNIVERSITY                             21
##  3 economics BOSTON COLLEGE                                64
##  4 economics BOSTON UNIVERSITY                            148
##  5 economics BRANDEIS UNIVERSITY                           24
##  6 economics BROWN UNIVERSITY                              81
##  7 economics CALIFORNIA INSTITUTE OF TECHNOLOGY            32
##  8 economics CARNEGIE MELLON UNIVERSITY                    35
##  9 economics CITY UNIVERSITY OF NEW YORK GRAD. CENTER      96
## 10 economics CLAREMONT GRADUATE UNIVERSITY                 76
## # … with 402 more rows
```
…
